{
  "tests": [
    {
      "base": "abaca",
      "expected": "abaca"
    },
    {
      "base": "abacule",
      "expected": "abacule"
    },
    {
      "base": "abaissassions",
      "expected": "abaisser"
    },
    {
      "base": "babyloniennes",
      "expected": "babylonien"
    },
    {
      "base": "baby-sitters",
      "expected": "baby-sitter"
    }
  ]
}
